<?xml version="1.0" encoding="utf-8"?>
<!-- Generator: Adobe Illustrator 15.1.0, SVG Export Plug-In . SVG Version: 6.00 Build 0)  -->
<!DOCTYPE svg PUBLIC "-//W3C//DTD SVG 1.1//EN" "http://www.w3.org/Graphics/SVG/1.1/DTD/svg11.dtd">
<svg version="1.1" id="ai-catcher" xmlns="http://www.w3.org/2000/svg" xmlns:xlink="http://www.w3.org/1999/xlink" x="0px" y="0px"
	 width="300px" height="300px" viewBox="0 0 300 300" enable-background="new 0 0 300 300" xml:space="preserve">
<path id="oblique-line" d="M6.272,0L0,6.272V4.858L4.858,0H6.272z M16.161,0L0,16.161v1.414L17.575,0H16.161z M27.463,0L0,27.463
	v1.414L28.877,0H27.463z M38.766,0L0,38.766v1.414L40.18,0H38.766z M50.068,0L0,50.068v1.414L51.482,0H50.068z M61.37,0L0,61.37
	v1.414L62.784,0H61.37z M72.673,0L0,72.673v1.414L74.087,0H72.673z M83.975,0L0,83.975v1.414L85.389,0H83.975z M95.278,0L0,95.278
	v1.414L96.692,0H95.278z M106.58,0L0,106.58v1.414L107.994,0H106.58z M117.882,0L0,117.882v1.414L119.296,0H117.882z M129.185,0
	L0,129.185v1.414L130.599,0H129.185z M140.487,0L0,140.487v1.414L141.901,0H140.487z M151.789,0L0,151.79v1.414L153.203,0H151.789z
	 M163.092,0L0,163.092v1.414L164.506,0H163.092z M174.395,0L0,174.395v1.414L175.809,0H174.395z M185.697,0L0,185.697v1.414
	L187.111,0H185.697z M196.999,0L0,196.999v1.414L198.413,0H196.999z M208.302,0L0,208.302v1.414L209.716,0H208.302z M219.604,0
	L0,219.604v1.414L221.019,0H219.604z M230.906,0L0,230.906v1.414L232.32,0H230.906z M242.209,0L0,242.209v1.414L243.623,0H242.209z
	 M253.511,0L0,253.511v1.414L254.925,0H253.511z M264.813,0L0,264.813v1.414L266.228,0H264.813z M276.116,0L0,276.116v1.414
	L277.53,0H276.116z M287.419,0L0,287.418v1.414L288.833,0H287.419z M298.721,0L0,298.721V300h0.135L300,0.135V0H298.721z
	 M11.438,300L300,11.438v-1.414L10.023,300H11.438z M22.74,300L300,22.739v-1.414L21.326,300H22.74z M34.042,300L300,34.042v-1.414
	L32.628,300H34.042z M45.344,300L300,45.345v-1.414L43.93,300H45.344z M56.647,300L300,56.646v-1.414L55.233,300H56.647z
	 M67.949,300L300,67.949v-1.414L66.535,300H67.949z M79.252,300L300,79.252v-1.414L77.838,300H79.252z M90.554,300L300,90.555
	v-1.414L89.14,300H90.554z M101.856,300L300,101.857v-1.414L100.442,300H101.856z M113.159,300L300,113.159v-1.414L111.745,300
	H113.159z M124.461,300L300,124.461v-1.414L123.047,300H124.461z M135.764,300L300,135.764v-1.414L134.35,300H135.764z M147.066,300
	L300,147.066v-1.414L145.652,300H147.066z M158.369,300L300,158.368v-1.414L156.955,300H158.369z M169.671,300L300,169.671v-1.414
	L168.257,300H169.671z M180.974,300L300,180.974v-1.414L179.56,300H180.974z M192.275,300L300,192.275v-1.414L190.861,300H192.275z
	 M203.578,300L300,203.578v-1.414L202.164,300H203.578z M214.88,300L300,214.88v-1.414L213.466,300H214.88z M226.183,300
	L300,226.183v-1.414L224.769,300H226.183z M237.485,300L300,237.485v-1.414L236.071,300H237.485z M248.788,300L300,248.788v-1.414
	L247.374,300H248.788z M260.09,300L300,260.09v-1.414L258.676,300H260.09z M271.393,300L300,271.393v-1.414L269.979,300H271.393z
	 M282.695,300L300,282.695v-1.414L281.281,300H282.695z M293.998,300l6.002-6.002v-1.414L292.584,300H293.998z"/>
</svg>
